[gd_resource type="GradientTexture2D" load_steps=2 format=3 uid="uid://ck284837y4uuf"]

[sub_resource type="Gradient" id="Gradient_cn8vv"]
offsets = PackedFloat32Array(0, 0.3, 0.4, 0.6, 0.7, 1)
colors = PackedColorArray(1, 1, 1, 0, 1, 1, 1, 0.407843, 1, 1, 1, 1, 1, 1, 1, 1, 1, 1, 1, 0.407843, 1, 1, 1, 0)
metadata/_snap_enabled = true

[resource]
gradient = SubResource("Gradient_cn8vv")
fill_to = Vector2(0, 1)
