[gd_scene load_steps=9 format=3 uid="uid://bpv73vq7srhw0"]

[ext_resource type="Script" path="res://Game/Enemies/asteroid.gd" id="1_wo1go"]
[ext_resource type="Resource" uid="uid://c71vok6wgmr8j" path="res://Game/Enemies/asteroid_shapes.tres" id="2_3uc7s"]
[ext_resource type="Texture2D" uid="uid://dtwuseyrfars2" path="res://Game/Art/vector_line_4.tres" id="3_hdvdf"]
[ext_resource type="Script" path="res://Game/Art/vector_line.gd" id="4_pkycl"]
[ext_resource type="PackedScene" uid="uid://dltpxar10wl71" path="res://Game/Effects/explosion_small.tscn" id="5_1tnqo"]
[ext_resource type="PackedScene" uid="uid://blphjmxyrrvwl" path="res://Game/Systems/object_wrap.tscn" id="6_up7dm"]

[sub_resource type="CanvasItemMaterial" id="CanvasItemMaterial_it5ui"]
blend_mode = 1

[sub_resource type="CircleShape2D" id="CircleShape2D_o20t3"]
radius = 32.0

[node name="Asteroid" type="RigidBody2D"]
collision_layer = 16
collision_mask = 0
script = ExtResource("1_wo1go")
break_asteroids = Array[int]([1, 1])
health = 4
radius = 96.0
asteroid_shapes = ExtResource("2_3uc7s")

[node name="Shape" type="Line2D" parent="."]
material = SubResource("CanvasItemMaterial_it5ui")
points = PackedVector2Array(-32, 0, -24, -8, -16, -24, -8, -24, 0, -32, 16, -24, 16, -16, 24, -8, 32, 8, 24, 24, 8, 32, -8, 16, -16, 24, -32, 16)
closed = true
width = 6.0
texture = ExtResource("3_hdvdf")
texture_mode = 2
joint_mode = 2
begin_cap_mode = 2
end_cap_mode = 2
script = ExtResource("4_pkycl")
line_style = 3

[node name="CollisionShape" type="CollisionShape2D" parent="."]
shape = SubResource("CircleShape2D_o20t3")

[node name="Explosion" parent="." instance=ExtResource("5_1tnqo")]

[node name="ObjectWrap" parent="." instance=ExtResource("6_up7dm")]

[connection signal="animation_finished" from="Explosion" to="." method="_on_explosion_animation_finished"]
